<?xml version="1.0" encoding="UTF-8" standalone="no"?>
<svg
   xmlns:dc="http://purl.org/dc/elements/1.1/"
   xmlns:cc="http://creativecommons.org/ns#"
   xmlns:rdf="http://www.w3.org/1999/02/22-rdf-syntax-ns#"
   xmlns:svg="http://www.w3.org/2000/svg"
   xmlns="http://www.w3.org/2000/svg"
   viewBox="0 0 566.93335 529.1333"
   height="529.1333"
   width="566.93335"
   xml:space="preserve"
   id="svg2"
   version="1.1"><metadata
     id="metadata8"><rdf:RDF><cc:Work
         rdf:about=""><dc:format>image/svg+xml</dc:format><dc:type
           rdf:resource="http://purl.org/dc/dcmitype/StillImage" /></cc:Work></rdf:RDF></metadata><defs
     id="defs6" /><g
     transform="matrix(1.3333333,0,0,-1.3333333,0,529.13333)"
     id="g10"><g
       transform="scale(0.1)"
       id="g12"><path
         id="path14"
         style="fill:#edede4;fill-opacity:1;fill-rule:nonzero;stroke:none"
         d="M 4251.97,3968.5 0,1984.24 4251.97,0 Z" /><path
         id="path16"
         style="fill:#f9ab2d;fill-opacity:1;fill-rule:nonzero;stroke:none"
         d="M 3681.34,3081.71 1324.61,1984.84 3681.34,887.98 Z" /><path
         id="path18"
         style="fill:#2a3a34;fill-opacity:1;fill-rule:nonzero;stroke:none"
         d="m 3605.81,2090.91 -22.3,61.02 h -53.21 v -127.21 h 38.52 v 76.48 l 28.42,-76.48 h 17.16 l 28.42,76.48 v -76.48 h 38.52 v 127.21 h -53.21 l -22.32,-61.02" /><path
         id="path20"
         style="fill:#2a3a34;fill-opacity:1;fill-rule:nonzero;stroke:none"
         d="m 3415.47,2024.72 h 38.52 v 47.5 h 56.65 v 33.56 h -56.65 v 12.58 h 57.98 v 33.57 h -96.5 v -127.21" /><path
         id="path22"
         style="fill:#2a3a34;fill-opacity:1;fill-rule:nonzero;stroke:none"
         d="m 1841.52,1818.25 h 101.05 v 333.68 h -101.05 v -333.68" /><path
         id="path24"
         style="fill:#2a3a34;fill-opacity:1;fill-rule:nonzero;stroke:none"
         d="m 1821,1932.82 c 0,62.03 -42.02,114.04 -120.06,114.04 h -77.03 v 77.28 l -101.06,-47.04 v -184.52 l 159.7,-74.33 h 18.39 c 78.04,0 120.06,52.03 120.06,114.57" /><path
         id="path26"
         style="fill:#2a3a34;fill-opacity:1;fill-rule:nonzero;stroke:none"
         d="m 2167.25,2068.4 c 30.01,0 56.02,-22.51 64.53,-48.54 l 87.05,40.52 c -20.01,46.03 -64.03,97.06 -151.58,97.06 -104.56,0 -183.6,-69.54 -183.6,-172.6 0,-102.56 79.04,-172.58 183.6,-172.58 87.55,0 132.06,53.01 151.58,97.54 l -87.05,40.03 c -8.51,-26.02 -34.52,-48.53 -64.53,-48.53 -48.54,0 -81.04,37.02 -81.04,83.54 0,46.53 32.5,83.56 81.04,83.56" /><path
         id="path28"
         style="fill:#2a3a34;fill-opacity:1;fill-rule:nonzero;stroke:none"
         d="m 3291.46,1990.34 c 32.51,7.01 57.04,35.02 57.04,76.54 0,39.03 -30.02,85.05 -99.07,85.05 h -202.59 v -333.68 h 209.61 c 67.04,0 98.54,44.01 98.54,90.55 0,43.02 -27.5,76.04 -63.53,81.54" /><path
         id="path30"
         style="fill:#2a3a34;fill-opacity:1;fill-rule:nonzero;stroke:none"
         d="m 2519.98,2157.44 c -103.06,0 -182.6,-70.05 -182.6,-172.6 0,-102.56 79.54,-172.58 182.6,-172.58 103.05,0 182.6,70.02 182.6,172.58 0,102.55 -79.55,172.6 -182.6,172.6" /><path
         id="path32"
         style="fill:#2a3a34;fill-opacity:1;fill-rule:nonzero;stroke:none"
         d="m 2743.64,1818.25 h 253.14 v 88.06 h -152.09 v 36.51 h 148.57 v 88.04 h -148.57 v 33.02 h 152.09 v 88.05 h -253.14 v -333.68" /><path
         id="path34"
         style="fill:#2a5290;fill-opacity:1;fill-rule:nonzero;stroke:none"
         d="m 1448.52,1927.14 -49.28,22.65 c -8.51,-26.02 -34.52,-48.53 -64.53,-48.53 -48.53,0 -81.04,37.02 -81.04,83.54 0,46.53 32.51,83.56 81.04,83.56 30.01,0 56.02,-22.51 64.53,-48.54 l 87.05,40.52 c -20.02,46.03 -64.03,97.06 -151.58,97.06 -104.55,0 -183.6,-69.54 -183.6,-172.6 0,-102.55 79.05,-172.58 183.6,-172.58 87.43,0 131.94,52.88 151.5,97.37 l -37.69,17.55" /><path
         id="path36"
         style="fill:#2a5290;fill-opacity:1;fill-rule:nonzero;stroke:none"
         d="m 1623.9,2124.1 v 27.8 h -101.06 v -74.84 l 101.06,47.04" /><path
         id="path38"
         style="fill:#2a5290;fill-opacity:1;fill-rule:nonzero;stroke:none"
         d="m 1522.84,1892.54 v -74.33 h 159.71 z" /></g></g></svg>