<svg width="48" height="48" viewBox="0 0 48 48" fill="none" xmlns="http://www.w3.org/2000/svg">
<circle cx="24" cy="24" r="23.5" stroke="white"/>
<path d="M18.4546 10.9091L31.5455 24L18.4546 37.0909" stroke="white" stroke-width="1.5" stroke-miterlimit="10"/>
</svg>
