<svg xmlns="http://www.w3.org/2000/svg" width="68" height="28" viewBox="0 0 68 28">
    <g fill="none">
        <g fill="#3C4043">
            <path d="M2.493 11.8v7.929H.015V.156h6.57C8.172.125 9.71.734 10.834 1.857c2.246 2.123 2.385 5.697.277 7.992l-.277.28C9.679 11.24 8.263 11.8 6.586 11.8H2.493zm0-9.24v6.836h4.154c.924.031 1.816-.343 2.447-1.014 1.292-1.358 1.262-3.543-.077-4.854-.631-.625-1.477-.968-2.37-.968H2.493zM18.326 5.9c1.831 0 3.278.5 4.34 1.483 1.061.983 1.584 2.357 1.584 4.09v8.256h-2.37v-1.857h-.107c-1.031 1.53-2.385 2.294-4.093 2.294-1.446 0-2.677-.437-3.647-1.311-.954-.812-1.492-2.014-1.462-3.278 0-1.389.524-2.482 1.554-3.309 1.031-.827 2.416-1.233 4.14-1.233 1.477 0 2.677.281 3.631.812v-.578c0-.858-.37-1.67-1.016-2.232-.661-.593-1.507-.92-2.385-.92-1.384 0-2.477.592-3.277 1.779l-2.185-1.39c1.17-1.732 2.939-2.606 5.293-2.606zm-3.2 9.724c0 .656.307 1.264.815 1.639.554.437 1.231.671 1.924.655 1.046 0 2.046-.421 2.785-1.17.815-.78 1.23-1.701 1.23-2.763-.769-.624-1.846-.936-3.23-.92-1 0-1.847.249-2.524.733-.662.484-1 1.092-1 1.826zM37.853 6.337L29.574 25.613 27.02 25.613 30.097 18.871 24.666 6.337 27.358 6.337 31.282 15.952 31.328 15.952 35.16 6.337z" transform="translate(.694) translate(29.39 1.56)"/>
        </g>
        <path fill="#4285F4" d="M21.865 11.644c0-.765-.061-1.53-.184-2.279H11.233v4.324h5.985c-.246 1.389-1.046 2.637-2.215 3.418v2.81h3.57c2.092-1.952 3.292-4.84 3.292-8.273z" transform="translate(.694)"/>
        <path fill="#34A853" d="M11.233 22.632c2.985 0 5.508-.999 7.34-2.716l-3.57-2.81c-1 .688-2.278 1.078-3.77 1.078-2.893 0-5.34-1.982-6.217-4.636H1.34v2.903c1.877 3.793 5.708 6.181 9.894 6.181z" transform="translate(.694)"/>
        <path fill="#FBBC04" d="M5.016 13.548c-.461-1.389-.461-2.903 0-4.308V6.353H1.34c-1.585 3.168-1.585 6.914 0 10.083l3.677-2.888z" transform="translate(.694)"/>
        <path fill="#EA4335" d="M11.233 4.604c1.585-.03 3.108.578 4.247 1.686l3.17-3.215C16.633 1.17 13.986.125 11.232.156c-4.186 0-8.017 2.404-9.894 6.197l3.677 2.903c.877-2.67 3.324-4.652 6.217-4.652z" transform="translate(.694)"/>
    </g>
</svg>
