<svg xmlns="http://www.w3.org/2000/svg" width="22" height="46" viewBox="0 0 22 46">
    <path fill="#4267B2" fill-rule="evenodd" d="M13.955 45.844v-20.84h6.34l.948-8.122h-7.288v-5.186c0-2.351.592-3.954 3.648-3.954L21.5 7.74V.476c-.674-.099-2.988-.32-5.679-.32-5.619 0-9.466 3.785-9.466 10.736v5.99H0v8.122h6.355v20.84h7.6z"/>
</svg>
