<svg xmlns="http://www.w3.org/2000/svg" width="25" height="24" viewBox="0 0 25 24">
    <g fill="none" fill-rule="evenodd">
        <rect width="14" height="12" x="4.5" y="9.504" stroke="#FFF" stroke-width="3" rx="4"/>
        <path stroke="#FFF" stroke-width="3" d="M6.564 11.004V9.392h0V7.781c0-2.867 2.246-5.192 5.017-5.192h0c2.77 0 5.016 2.325 5.016 5.192v2.709h0v.514"/>
        <rect width="3" height="5.101" x="10" y="12.504" fill="#FFF" rx="1.5"/>
    </g>
</svg>
